<svg xmlns="http://www.w3.org/2000/svg" width="375" height="812" viewBox="0 0 375 812">
    <g fill="none" fill-rule="evenodd">
        <path fill="#83BD5C" d="M1150.1 717.66l14.452-11.379C1675.548 308.488 2166.963 52.495 3033.021 4.901 3083.326 1.955 3134.183.742 3185.04.742c86.986 0 175.627 4.159 263.165 11.899-231.835 890.198-871.588 3338.272-909.262 3463.785L891.085 816.769c37.068-33.27 208.269-57.926 241.309-84.553 6.068-4.564 12.466-9.473 17.706-14.556z" transform="rotate(-87 -373.407 2875.04)"/>
        <path fill="#5B9E54" d="M2538.943 3476.426L373.774 4684.406C-26.205 3923.1 8.644 3103.886 56.36 2639.745l2482.584 836.68z" transform="rotate(-87 -373.407 2875.04)"/>
        <path fill="#68A855" d="M1.936 2798.215l2.924-26.274 5.462-31.932C172.09 1744.26 677.747 1135.459 1026.493 822.426l1512.45 2654-2538-663.024c0-4.85.993-10.278.993-15.187" transform="rotate(-87 -373.407 2875.04)"/>
    </g>
</svg>
