<svg xmlns="http://www.w3.org/2000/svg" width="24" height="24" viewBox="0 0 24 24">
    <path fill="none" fill-rule="evenodd" stroke="#FFF" stroke-linecap="round" stroke-linejoin="round" stroke-width="2" d="M22 17H2c1.657 0 3-1.343 3-3V9c0-3.866 3.134-7 7-7s7 3.134 7 7v5c0 1.657 1.343 3 3 3h0zm-8.27 4c-.358.617-1.017.996-1.73.996-.713 0-1.372-.38-1.73-.996"/>
</svg>
